Random Forest Modelling for Predicting Rain in Australia
…
### Check Accuracy and AUC after tuning
rf_rs_tune %>% 
  collect_metrics()

## # A tibble: 50 x 8
##     mtry min_n .metric  .estimator  mean     n  std_err .config
##    <int> <int> <chr>    <chr>      <dbl> <int>    <dbl> <chr>  
##  1     2    16 accuracy binary     0.856    10 0.000951 Model01
##  2     2    16 roc_auc  binary     0.888    10 0.00115  Model01
##  3     7     6 accuracy binary     0.858    10 0.000868 Model02
##  4     7     6 roc_auc  binary     0.888    10 0.00111  Model02
##  5    10    34 accuracy binary     0.857    10 0.000744 Model03
##  6    10    34 roc_auc  binary     0.885    10 0.00111  Model03
##  7     9     8 accuracy binary     0.858    10 0.000773 Model04
##  8     9     8 roc_auc  binary     0.887    10 0.000996 Model04
##  9     6    40 accuracy binary     0.856    10 0.000848 Model05
## 10     6    40 roc_auc  binary     0.887    10 0.00106  Model05
## # ... with 40 more rows
…
